com\mycompany\storeproject\TestDeleteProduct.class
com\mycompany\storeproject\TestInsertProduct.class
com\mycompany\storeproject\TestConnection.class
com\mycompany\storeproject\TestUpdateProduct.class
